[
    {
        "_id": "5de020ae332c106d58ecd3a8",
        "codigo": "ADMIN_PERFIL",
        "nombre": "Administrador",
        "valor": "ALL",
        "lista": {
            "_id": "5de01fcd332c106d58ecd259",
            "codigo": "PERFILES",
            "descripcion": "Perfiles de usuario",
            "creacion": "2019-11-28T19:28:13.369Z",
            "estado": "A",
            "__v": 0
        },
        "__v": 0
    },
    {
        "_id": "5de020ae332c106d58ecd3a9",
        "codigo": "OFICIN_PERFIL",
        "nombre": "Oficina",
        "valor": "PORENTREGAR",
        "lista": {
            "_id": "5de01fcd332c106d58ecd259",
            "codigo": "PERFILES",
            "descripcion": "Perfiles de usuario",
            "creacion": "2019-11-28T19:28:13.369Z",
            "estado": "A",
            "__v": 0
        },
        "__v": 0
    },
    {
        "_id": "5de020af332c106d58ecd3aa",
        "codigo": "PROVE_PERFIL",
        "nombre": "Proveedor",
        "valor": "GESTIONADO/PRODUCCION",
        "lista": {
            "_id": "5de01fcd332c106d58ecd259",
            "codigo": "PERFILES",
            "descripcion": "Perfiles de usuario",
            "creacion": "2019-11-28T19:28:13.369Z",
            "estado": "A",
            "__v": 0
        },
        "__v": 0
    }
]